{
  "name": "postgres-connector",
  "config": {
    "connector.class": "io.debezium.connector.postgresql.PostgresConnector",
    "database.hostname": "postgres",
    "database.port": "5432",
    "database.user": "postgres",
    "database.password": "postgres",
    "database.dbname": "postgres",
    "database.server.name": "postgres",
    "table.include.list": "public.test",
    "plugin.name": "pgoutput",
    "publication.autocreate.mode": "filtered",
    "heartbeat.action.query": "INSERT INTO public.debezium_heartbeat (heartbeat_text) VALUES ('test_heartbeat')",
    "heartbeat.interval.ms": "300000"
  }
}